%!PS-Adobe-3.0 EPSF-3.0
%%Creator: cairo 1.15.10 (http://cairographics.org)
%%CreationDate: Tue Sep 17 14:41:19 2019
%%Pages: 1
%%DocumentData: Clean7Bit
%%LanguageLevel: 2
%%BoundingBox: 0 0 123 123
%%EndComments
%%BeginProlog
50 dict begin
/q { gsave } bind def
/Q { grestore } bind def
/cm { 6 array astore concat } bind def
/w { setlinewidth } bind def
/J { setlinecap } bind def
/j { setlinejoin } bind def
/M { setmiterlimit } bind def
/d { setdash } bind def
/m { moveto } bind def
/l { lineto } bind def
/c { curveto } bind def
/h { closepath } bind def
/re { exch dup neg 3 1 roll 5 3 roll moveto 0 rlineto
      0 exch rlineto 0 rlineto closepath } bind def
/S { stroke } bind def
/f { fill } bind def
/f* { eofill } bind def
/n { newpath } bind def
/W { clip } bind def
/W* { eoclip } bind def
/BT { } bind def
/ET { } bind def
/BDC { mark 3 1 roll /BDC pdfmark } bind def
/EMC { mark /EMC pdfmark } bind def
/cairo_store_point { /cairo_point_y exch def /cairo_point_x exch def } def
/Tj { show currentpoint cairo_store_point } bind def
/TJ {
  {
    dup
    type /stringtype eq
    { show } { -0.001 mul 0 cairo_font_matrix dtransform rmoveto } ifelse
  } forall
  currentpoint cairo_store_point
} bind def
/cairo_selectfont { cairo_font_matrix aload pop pop pop 0 0 6 array astore
    cairo_font exch selectfont cairo_point_x cairo_point_y moveto } bind def
/Tf { pop /cairo_font exch def /cairo_font_matrix where
      { pop cairo_selectfont } if } bind def
/Td { matrix translate cairo_font_matrix matrix concatmatrix dup
      /cairo_font_matrix exch def dup 4 get exch 5 get cairo_store_point
      /cairo_font where { pop cairo_selectfont } if } bind def
/Tm { 2 copy 8 2 roll 6 array astore /cairo_font_matrix exch def
      cairo_store_point /cairo_font where { pop cairo_selectfont } if } bind def
/g { setgray } bind def
/rg { setrgbcolor } bind def
/d1 { setcachedevice } bind def
/cairo_data_source {
  CairoDataIndex CairoData length lt
    { CairoData CairoDataIndex get /CairoDataIndex CairoDataIndex 1 add def }
    { () } ifelse
} def
/cairo_flush_ascii85_file { cairo_ascii85_file status { cairo_ascii85_file flushfile } if } def
/cairo_image { image cairo_flush_ascii85_file } def
/cairo_imagemask { imagemask cairo_flush_ascii85_file } def
%%EndProlog
%%BeginSetup
%%EndSetup
%%Page: 1 1
%%BeginPageSetup
%%PageBoundingBox: 0 0 123 123
%%EndPageSetup
q 0 0 123 123 rectclip
1 0 0 -1 0 123 cm q
1 g
0.359 3.613 118.32 111.602 re f
0.137255 0.121569 0.12549 rg
1.5 w
0 J
0 j
[ 7.38461 7.38461] 0 d
10 M q 1 0 0 -1 0 0 cm
13.934 -108.762 m 13.934 -12.762 l S Q
[ 7.38461 7.38461] 0 d
q 1 0 0 -1 0 0 cm
109.934 -108.762 m 109.934 -12.762 l S Q
[] 0.0 d
q 1 0 0 -1 0 0 cm
109.934 -12.762 m 13.934 -12.762 l S Q
q 1 0 0 -1 0 0 cm
13.934 -12.762 m 61.934 -60.762 l S Q
q 1 0 0 -1 0 0 cm
61.934 -60.762 m 109.934 -12.762 l S Q
q 1 0 0 -1 0 0 cm
109.934 -108.762 m 61.934 -60.762 l S Q
q 1 0 0 -1 0 0 cm
61.934 -60.762 m 13.934 -108.762 l S Q
q 1 0 0 -1 0 0 cm
13.934 -108.762 m 109.934 -108.762 l S Q
17.934 12.762 m 17.934 10.555 16.141 8.762 13.934 8.762 c 11.723 8.762 
9.934 10.555 9.934 12.762 c 9.934 14.973 11.723 16.762 13.934 16.762 c 16.141
 16.762 17.934 14.973 17.934 12.762 c f
113.934 12.762 m 113.934 10.555 112.141 8.762 109.934 8.762 c 107.723 8.762
 105.934 10.555 105.934 12.762 c 105.934 14.973 107.723 16.762 109.934 16.762
 c 112.141 16.762 113.934 14.973 113.934 12.762 c f
113.934 108.762 m 113.934 106.555 112.141 104.762 109.934 104.762 c 107.723
 104.762 105.934 106.555 105.934 108.762 c 105.934 110.973 107.723 112.762
 109.934 112.762 c 112.141 112.762 113.934 110.973 113.934 108.762 c f
17.934 108.762 m 17.934 106.555 16.141 104.762 13.934 104.762 c 11.723 
104.762 9.934 106.555 9.934 108.762 c 9.934 110.973 11.723 112.762 13.934
 112.762 c 16.141 112.762 17.934 110.973 17.934 108.762 c f
65.934 60.762 m 65.934 58.555 64.141 56.762 61.934 56.762 c 59.723 56.762
 57.934 58.555 57.934 60.762 c 57.934 62.973 59.723 64.762 61.934 64.762
 c 64.141 64.762 65.934 62.973 65.934 60.762 c f
1 g
0 3.133 119.039 0.48 re f
0 3.375 0.48 112.078 re f
118.68 3.375 0.48 112.078 re f
0 115.215 119.039 0.48 re f
0 g
63.699 4.453 m 63.707 4.426 l 63.723 4.355 l 63.73 4.316 l 63.746 4.277
 l 63.77 4.184 l 63.785 4.137 l 63.805 4.086 l 63.824 4.031 l 63.844 3.98
 l 63.891 3.871 l 63.918 3.816 l 63.945 3.766 l 64.008 3.656 l 64.039 3.605
 l 64.078 3.555 l 64.156 3.461 l 64.199 3.418 l 64.246 3.375 l 64.293 3.336
 l 64.344 3.301 l 64.398 3.27 l 64.422 3.254 l 64.449 3.242 l 64.48 3.23
 l 64.508 3.223 l 64.539 3.211 l 64.602 3.195 l 64.637 3.188 l 64.668 3.184
 l 64.738 3.176 l 64.773 3.176 l 64.828 3.176 65.086 3.176 65.312 3.316 
c 65.008 3.371 64.793 3.641 64.793 3.902 c 64.793 4.07 64.91 4.281 65.203
 4.281 c 65.441 4.281 65.785 4.086 65.785 3.652 c 65.785 3.09 65.148 2.941
 64.781 2.941 c 64.152 2.941 63.773 3.516 63.645 3.762 c 63.375 3.051 62.789
 2.941 62.48 2.941 c 61.352 2.941 60.734 4.336 60.734 4.605 c 60.734 4.715
 60.844 4.715 60.867 4.715 c 60.949 4.715 60.984 4.691 61.004 4.594 c 61.371
 3.449 62.09 3.176 62.457 3.176 c 62.66 3.176 63.039 3.273 63.039 3.902 
c 63.039 4.234 62.855 4.961 62.457 6.477 c 62.281 7.148 61.902 7.602 61.426
 7.602 c 61.359 7.602 61.113 7.602 60.887 7.461 c 61.16 7.406 61.395 7.184
 61.395 6.875 c 61.395 6.586 61.16 6.5 60.996 6.5 c 60.672 6.5 60.398 6.781
 60.398 7.129 c 60.398 7.621 60.941 7.84 61.414 7.84 c 62.133 7.84 62.52
 7.082 62.555 7.02 c 62.68 7.418 63.07 7.84 63.719 7.84 c 64.836 7.84 65.453
 6.445 65.453 6.176 c 65.453 6.066 65.355 6.066 65.32 6.066 c 65.227 6.066
 65.203 6.109 65.184 6.184 c 64.828 7.34 64.09 7.602 63.742 7.602 c 63.32
 7.602 63.145 7.254 63.145 6.887 c 63.145 6.648 63.211 6.41 63.332 5.934
 c h
63.699 4.453 m f*
68.797 4.523 m 68.797 4.441 l 68.793 4.434 l 68.793 4.406 l 68.789 4.398
 l 68.789 4.383 l 68.773 4.352 l 68.758 4.336 l 68.727 4.32 l 68.715 4.316
 l 68.695 4.316 l 68.691 4.312 l 68.57 4.312 l 68.082 4.789 67.398 4.797
 67.086 4.797 c 67.086 5.066 l 67.27 5.066 67.77 5.066 68.18 4.855 c 68.18
 8.715 l 68.18 8.965 68.18 9.062 67.426 9.062 c 67.141 9.062 l 67.141 9.336
 l 67.277 9.328 68.207 9.305 68.488 9.305 c 68.723 9.305 69.676 9.328 69.844
 9.336 c 69.844 9.062 l 69.555 9.062 l 68.797 9.062 68.797 8.965 68.797 
8.715 c h
68.797 4.523 m f*
3.801 60.484 m 3.809 60.457 l 3.816 60.426 l 3.824 60.391 l 3.832 60.352
 l 3.848 60.309 l 3.859 60.266 l 3.875 60.219 l 3.887 60.168 l 3.926 60.066
 l 3.945 60.012 l 3.969 59.961 l 3.992 59.906 l 4.047 59.797 l 4.078 59.742
 l 4.141 59.641 l 4.18 59.59 l 4.219 59.543 l 4.258 59.492 l 4.301 59.449
 l 4.395 59.371 l 4.445 59.336 l 4.5 59.305 l 4.523 59.289 l 4.551 59.277
 l 4.613 59.254 l 4.641 59.242 l 4.672 59.234 l 4.703 59.23 l 4.738 59.223
 l 4.77 59.219 l 4.84 59.211 l 4.875 59.211 l 4.93 59.211 5.188 59.211 5.414
 59.352 c 5.109 59.406 4.895 59.676 4.895 59.934 c 4.895 60.105 5.012 60.316
 5.305 60.316 c 5.543 60.316 5.887 60.121 5.887 59.688 c 5.887 59.121 5.25
 58.977 4.883 58.977 c 4.254 58.977 3.875 59.547 3.746 59.797 c 3.477 59.082
 2.891 58.977 2.582 58.977 c 1.453 58.977 0.836 60.367 0.836 60.641 c 0.836
 60.75 0.945 60.75 0.969 60.75 c 1.051 60.75 1.086 60.727 1.105 60.629 c
 1.473 59.484 2.191 59.211 2.559 59.211 c 2.762 59.211 3.141 59.309 3.141
 59.934 c 3.141 60.27 2.957 60.996 2.559 62.512 c 2.383 63.18 2.004 63.633
 1.527 63.633 c 1.461 63.633 1.215 63.633 0.988 63.492 c 1.262 63.441 1.496
 63.215 1.496 62.91 c 1.496 62.617 1.262 62.535 1.098 62.535 c 0.773 62.535
 0.5 62.812 0.5 63.16 c 0.5 63.656 1.043 63.875 1.516 63.875 c 2.234 63.875
 2.621 63.117 2.656 63.051 c 2.781 63.453 3.176 63.875 3.82 63.875 c 4.938
 63.875 5.555 62.48 5.555 62.207 c 5.555 62.098 5.457 62.098 5.422 62.098
 c 5.328 62.098 5.305 62.145 5.285 62.215 c 4.93 63.375 4.191 63.633 3.844
 63.633 c 3.422 63.633 3.246 63.289 3.246 62.922 c 3.246 62.68 3.312 62.445
 3.434 61.969 c h
3.801 60.484 m f*
10.184 63.992 m 9.926 63.992 l 9.906 64.156 9.828 64.605 9.73 64.68 c 9.672
 64.727 9.09 64.727 8.984 64.727 c 7.59 64.727 l 8.383 64.023 8.648 63.812
 9.102 63.457 c 9.66 63.008 10.184 62.539 10.184 61.82 c 10.184 60.906 9.383
 60.344 8.414 60.344 c 7.477 60.344 6.84 61.004 6.84 61.699 c 6.84 62.086
 7.164 62.125 7.242 62.125 c 7.422 62.125 7.645 61.992 7.645 61.723 c 7.645
 61.586 7.59 61.32 7.195 61.32 c 7.43 60.785 7.945 60.617 8.301 60.617 c
 9.059 60.617 9.453 61.207 9.453 61.82 c 9.453 62.48 8.984 63 8.738 63.273
 c 6.918 65.074 l 6.84 65.141 6.84 65.16 6.84 65.371 c 9.957 65.371 l h
10.184 63.992 m f*
116.352 59.762 m 116.359 59.734 l 116.375 59.664 l 116.398 59.586 l 116.41
 59.539 l 116.426 59.492 l 116.438 59.445 l 116.477 59.344 l 116.496 59.289
 l 116.52 59.234 l 116.543 59.184 l 116.598 59.074 l 116.66 58.965 l 116.691
 58.914 l 116.73 58.863 l 116.809 58.77 l 116.852 58.727 l 116.898 58.684
 l 116.945 58.645 l 116.996 58.609 l 117.051 58.582 l 117.074 58.566 l 117.105
 58.551 l 117.133 58.543 l 117.164 58.531 l 117.191 58.52 l 117.254 58.504
 l 117.289 58.496 l 117.32 58.492 l 117.355 58.488 l 117.426 58.488 l 117.48
 58.488 117.738 58.488 117.965 58.625 c 117.66 58.68 117.445 58.953 117.445
 59.211 c 117.445 59.383 117.562 59.59 117.855 59.59 c 118.094 59.59 118.438
 59.398 118.438 58.961 c 118.438 58.398 117.801 58.25 117.434 58.25 c 116.805
 58.25 116.426 58.824 116.297 59.07 c 116.027 58.359 115.441 58.25 115.133
 58.25 c 114.004 58.25 113.387 59.645 113.387 59.914 c 113.387 60.023 113.496
 60.023 113.52 60.023 c 113.602 60.023 113.637 60 113.656 59.906 c 114.023
 58.758 114.742 58.488 115.109 58.488 c 115.312 58.488 115.691 58.582 115.691
 59.211 c 115.691 59.543 115.508 60.273 115.109 61.785 c 114.934 62.457 
114.555 62.91 114.078 62.91 c 114.012 62.91 113.766 62.91 113.539 62.77 
c 113.812 62.719 114.047 62.492 114.047 62.184 c 114.047 61.895 113.812 
61.809 113.648 61.809 c 113.324 61.809 113.051 62.09 113.051 62.438 c 113.051
 62.934 113.594 63.148 114.066 63.148 c 114.785 63.148 115.172 62.391 115.207
 62.328 c 115.332 62.727 115.727 63.148 116.371 63.148 c 117.488 63.148 
118.105 61.754 118.105 61.484 c 118.105 61.375 118.008 61.375 117.973 61.375
 c 117.879 61.375 117.855 61.418 117.836 61.492 c 117.48 62.648 116.742 
62.91 116.395 62.91 c 115.973 62.91 115.797 62.566 115.797 62.195 c 115.797
 61.957 115.863 61.719 115.984 61.246 c h
116.352 59.762 m f*
120.98 62.117 m 121.035 62.117 l 121.09 62.121 l 121.141 62.129 l 121.195
 62.137 l 121.246 62.148 l 121.293 62.16 l 121.344 62.176 l 121.387 62.195
 l 121.434 62.215 l 121.52 62.262 l 121.562 62.289 l 121.641 62.352 l 121.711
 62.422 l 121.742 62.461 l 121.773 62.504 l 121.801 62.547 l 121.832 62.594
 l 121.879 62.695 l 121.898 62.746 l 121.938 62.863 l 121.953 62.922 l 121.965
 62.984 l 121.977 63.051 l 121.984 63.117 l 121.992 63.188 l 121.992 63.258
 l 121.996 63.336 l 121.996 64.277 121.449 64.555 121.012 64.555 c 120.711
 64.555 120.043 64.473 119.727 64.023 c 120.078 64.012 120.164 63.758 120.164
 63.602 c 120.164 63.359 119.98 63.188 119.746 63.188 c 119.535 63.188 119.324
 63.312 119.324 63.625 c 119.324 64.336 120.109 64.797 121.023 64.797 c 
122.074 64.797 122.805 64.09 122.805 63.336 c 122.805 62.746 122.32 62.156
 121.484 61.98 c 122.281 61.691 122.57 61.129 122.57 60.664 c 122.57 60.066
 121.879 59.621 121.043 59.621 c 120.199 59.621 119.559 60.031 119.559 60.633
 c 119.559 60.895 119.727 61.035 119.953 61.035 c 120.188 61.035 120.336
 60.863 120.336 60.652 c 120.336 60.43 120.188 60.273 119.953 60.258 c 120.219
 59.922 120.738 59.84 121.02 59.84 c 121.355 59.84 121.836 60.008 121.836
 60.664 c 121.836 60.984 121.73 61.328 121.535 61.562 c 121.285 61.852 121.074
 61.871 120.691 61.891 c 120.5 61.906 120.488 61.906 120.453 61.914 c 120.434
 61.914 120.375 61.926 120.375 62.012 c 120.375 62.117 120.441 62.117 120.57
 62.117 c h
120.98 62.117 m f*
61.043 113.863 m 61.051 113.836 l 61.059 113.801 l 61.066 113.77 l 61.074
 113.73 l 61.09 113.688 l 61.113 113.594 l 61.129 113.547 l 61.168 113.445
 l 61.188 113.391 l 61.211 113.336 l 61.234 113.285 l 61.289 113.176 l 61.32
 113.121 l 61.352 113.07 l 61.383 113.016 l 61.422 112.965 l 61.5 112.871
 l 61.543 112.828 l 61.59 112.785 l 61.637 112.746 l 61.688 112.711 l 61.738
 112.684 l 61.793 112.652 l 61.824 112.645 l 61.852 112.633 l 61.883 112.621
 l 61.945 112.605 l 61.98 112.598 l 62.012 112.594 l 62.047 112.59 l 62.117
 112.59 l 62.168 112.59 62.43 112.59 62.652 112.727 c 62.352 112.781 62.137
 113.055 62.137 113.312 c 62.137 113.484 62.254 113.691 62.547 113.691 c
 62.785 113.691 63.129 113.5 63.129 113.062 c 63.129 112.5 62.492 112.352
 62.125 112.352 c 61.496 112.352 61.117 112.926 60.988 113.172 c 60.719 
112.461 60.133 112.352 59.824 112.352 c 58.695 112.352 58.078 113.746 58.078
 114.016 c 58.078 114.125 58.184 114.125 58.211 114.125 c 58.293 114.125
 58.328 114.102 58.348 114.008 c 58.715 112.859 59.434 112.59 59.797 112.59
 c 60.004 112.59 60.379 112.684 60.379 113.312 c 60.379 113.645 60.199 114.375
 59.797 115.887 c 59.625 116.559 59.246 117.012 58.77 117.012 c 58.703 117.012
 58.457 117.012 58.23 116.871 c 58.504 116.82 58.738 116.594 58.738 116.285
 c 58.738 115.996 58.504 115.91 58.34 115.91 c 58.016 115.91 57.742 116.191
 57.742 116.539 c 57.742 117.035 58.285 117.25 58.758 117.25 c 59.477 117.25
 59.863 116.492 59.895 116.43 c 60.023 116.828 60.414 117.25 61.062 117.25
 c 62.18 117.25 62.797 115.855 62.797 115.586 c 62.797 115.477 62.699 115.477
 62.664 115.477 c 62.57 115.477 62.547 115.52 62.527 115.594 c 62.168 116.75
 61.434 117.012 61.086 117.012 c 60.664 117.012 60.488 116.668 60.488 116.297
 c 60.488 116.059 60.555 115.82 60.676 115.348 c h
61.043 113.863 m f*
67.609 117.504 m 67.609 117.234 l 66.766 117.234 l 66.766 113.855 l 66.766
 113.699 66.766 113.645 66.602 113.645 c 66.512 113.645 66.48 113.645 66.402
 113.754 c 63.902 117.234 l 63.902 117.504 l 66.125 117.504 l 66.176 117.234
 l 64.18 117.234 l 66.176 114.465 l 66.176 117.234 l 66.125 117.504 l 66.125
 118.125 l 66.125 118.383 66.125 118.477 65.512 118.477 c 65.309 118.477
 l 65.309 118.746 l 65.684 118.734 66.168 118.715 66.441 118.715 c 66.723
 118.715 67.207 118.734 67.586 118.746 c 67.586 118.477 l 67.383 118.477
 l 66.766 118.477 66.766 118.383 66.766 118.125 c 66.766 117.504 l h
67.609 117.504 m f*
41.961 35.078 m 42.016 35.02 l 42.066 34.965 l 42.117 34.914 l 42.168 34.859
 l 42.215 34.809 l 42.266 34.762 l 42.352 34.668 l 42.398 34.625 l 42.441
 34.586 l 42.48 34.543 l 42.523 34.504 l 42.602 34.426 l 42.68 34.355 l 
42.754 34.285 l 42.824 34.219 l 42.965 34.094 l 43.105 33.973 l 43.18 33.91
 l 43.25 33.848 l 43.25 33.836 43.918 33.266 44.309 32.875 c 45.336 31.867
 45.574 31.348 45.574 31.309 c 45.574 31.199 45.477 31.199 45.457 31.199
 c 45.379 31.199 45.348 31.219 45.293 31.316 c 44.969 31.836 44.746 32.008
 44.48 32.008 c 44.223 32.008 44.094 31.848 43.93 31.664 c 43.727 31.414
 43.543 31.199 43.184 31.199 c 42.371 31.199 41.875 32.203 41.875 32.43 
c 41.875 32.484 41.906 32.547 42.008 32.547 c 42.105 32.547 42.125 32.492
 42.145 32.43 c 42.352 31.93 42.98 31.922 43.062 31.922 c 43.293 31.922 
43.496 32 43.746 32.082 c 44.18 32.246 44.301 32.246 44.582 32.246 c 44.191
 32.711 43.281 33.492 43.078 33.664 c 42.105 34.57 l 41.367 35.297 40.988
 35.914 40.988 35.988 c 40.988 36.098 41.098 36.098 41.117 36.098 c 41.203
 36.098 41.223 36.078 41.289 35.961 c 41.543 35.578 41.863 35.285 42.211
 35.285 c 42.461 35.285 42.57 35.387 42.836 35.695 c 43.023 35.926 43.219
 36.098 43.527 36.098 c 44.602 36.098 45.227 34.723 45.227 34.434 c 45.227
 34.379 45.184 34.324 45.102 34.324 c 45 34.324 44.98 34.387 44.945 34.465
 c 44.699 35.168 44.008 35.371 43.648 35.371 c 43.434 35.371 43.238 35.309
 43.008 35.23 c 42.645 35.094 42.48 35.051 42.254 35.051 c 42.23 35.051 
42.059 35.051 41.961 35.078 c h
41.961 35.078 m f*
48.086 32.781 m 48.086 32.707 l 48.082 32.699 l 48.082 32.664 l 48.078 
32.656 l 48.078 32.641 l 48.062 32.609 l 48.059 32.605 l 48.055 32.598 l
 48.039 32.59 l 48.035 32.586 l 48.023 32.582 l 48.016 32.582 l 48.004 32.574
 l 47.984 32.574 l 47.98 32.57 l 47.859 32.57 l 47.375 33.047 46.688 33.055
 46.379 33.055 c 46.379 33.324 l 46.559 33.324 47.059 33.324 47.473 33.113
 c 47.473 36.973 l 47.473 37.227 47.473 37.324 46.715 37.324 c 46.43 37.324
 l 46.43 37.594 l 46.566 37.586 47.496 37.562 47.777 37.562 c 48.012 37.562
 48.965 37.586 49.129 37.594 c 49.129 37.324 l 48.844 37.324 l 48.086 37.324
 48.086 37.227 48.086 36.973 c h
48.086 32.781 m f*
42.926 87.008 m 42.98 86.949 l 43.031 86.895 l 43.137 86.789 l 43.184 86.738
 l 43.277 86.645 l 43.32 86.598 l 43.406 86.512 l 43.449 86.473 l 43.488
 86.43 l 43.527 86.395 l 43.57 86.355 l 43.645 86.281 l 43.719 86.215 l 
43.789 86.148 l 43.863 86.086 l 44.145 85.836 l 44.215 85.777 l 44.215 85.766
 44.887 85.191 45.277 84.801 c 46.305 83.793 46.543 83.273 46.543 83.234
 c 46.543 83.129 46.441 83.129 46.422 83.129 c 46.348 83.129 46.312 83.148
 46.258 83.246 c 45.938 83.762 45.711 83.938 45.449 83.938 c 45.188 83.938
 45.059 83.773 44.895 83.594 c 44.691 83.34 44.508 83.129 44.148 83.129 
c 43.34 83.129 42.84 84.129 42.84 84.359 c 42.84 84.414 42.871 84.477 42.973
 84.477 c 43.07 84.477 43.09 84.422 43.109 84.359 c 43.316 83.859 43.945
 83.848 44.031 83.848 c 44.258 83.848 44.465 83.926 44.711 84.012 c 45.145
 84.176 45.266 84.176 45.547 84.176 c 45.156 84.637 44.246 85.422 44.043
 85.594 c 43.07 86.5 l 42.332 87.227 41.953 87.84 41.953 87.918 c 41.953
 88.027 42.062 88.027 42.082 88.027 c 42.172 88.027 42.191 88.004 42.254
 87.887 c 42.508 87.508 42.828 87.215 43.176 87.215 c 43.426 87.215 43.535
 87.312 43.805 87.625 c 43.992 87.852 44.184 88.027 44.496 88.027 c 45.566
 88.027 46.195 86.652 46.195 86.359 c 46.195 86.305 46.152 86.254 46.066
 86.254 c 45.965 86.254 45.945 86.316 45.914 86.395 c 45.664 87.098 44.973
 87.297 44.613 87.297 c 44.402 87.297 44.203 87.234 43.977 87.16 c 43.609
 87.02 43.449 86.977 43.219 86.977 c 43.199 86.977 43.027 86.977 42.926 
87.008 c h
42.926 87.008 m f*
50.336 88.145 m 50.082 88.145 l 50.059 88.309 49.98 88.758 49.883 88.832
 c 49.824 88.879 49.242 88.879 49.137 88.879 c 47.742 88.879 l 48.539 88.176
 48.801 87.965 49.258 87.609 c 49.816 87.16 50.336 86.691 50.336 85.973 
c 50.336 85.059 49.539 84.496 48.566 84.496 c 47.629 84.496 46.992 85.156
 46.992 85.852 c 46.992 86.238 47.32 86.277 47.398 86.277 c 47.574 86.277
 47.797 86.145 47.797 85.875 c 47.797 85.738 47.742 85.477 47.352 85.477
 c 47.586 84.938 48.098 84.77 48.453 84.77 c 49.211 84.77 49.605 85.359 
49.605 85.973 c 49.605 86.633 49.137 87.152 48.895 87.426 c 47.07 89.227
 l 46.992 89.293 46.992 89.312 46.992 89.523 c 50.113 89.523 l h
50.336 88.145 m f*
75.531 34.113 m 75.586 34.055 l 75.641 34 l 75.691 33.945 l 75.742 33.895
 l 75.789 33.844 l 75.883 33.75 l 75.926 33.703 l 76.012 33.617 l 76.055
 33.578 l 76.094 33.535 l 76.133 33.5 l 76.176 33.461 l 76.25 33.387 l 76.398
 33.254 l 76.539 33.129 l 76.68 33.008 l 76.75 32.941 l 76.82 32.883 l 76.82
 32.871 77.492 32.297 77.883 31.906 c 78.91 30.898 79.148 30.383 79.148 
30.344 c 79.148 30.234 79.047 30.234 79.027 30.234 c 78.953 30.234 78.918
 30.254 78.867 30.352 c 78.543 30.871 78.316 31.043 78.055 31.043 c 77.793
 31.043 77.664 30.879 77.5 30.699 c 77.297 30.445 77.117 30.234 76.754 30.234
 c 75.945 30.234 75.449 31.238 75.449 31.465 c 75.449 31.52 75.477 31.582
 75.578 31.582 c 75.676 31.582 75.695 31.527 75.719 31.465 c 75.922 30.965
 76.551 30.953 76.637 30.953 c 76.863 30.953 77.07 31.031 77.316 31.117 
c 77.75 31.281 77.871 31.281 78.152 31.281 c 77.762 31.746 76.852 32.527
 76.652 32.699 c 75.676 33.605 l 74.941 34.332 74.559 34.949 74.559 35.023
 c 74.559 35.133 74.668 35.133 74.688 35.133 c 74.777 35.133 74.797 35.109
 74.863 34.992 c 75.113 34.613 75.434 34.32 75.781 34.32 c 76.031 34.32 
76.141 34.418 76.41 34.73 c 76.598 34.957 76.789 35.133 77.102 35.133 c 
78.172 35.133 78.801 33.758 78.801 33.465 c 78.801 33.414 78.758 33.359 
78.672 33.359 c 78.574 33.359 78.555 33.422 78.52 33.5 c 78.27 34.203 77.578
 34.406 77.219 34.406 c 77.008 34.406 76.809 34.34 76.582 34.266 c 76.215
 34.125 76.055 34.082 75.824 34.082 c 75.805 34.082 75.633 34.082 75.531
 34.113 c h
75.531 34.113 m f*
81.191 34.102 m 81.246 34.102 l 81.301 34.105 l 81.402 34.121 l 81.504 
34.145 l 81.598 34.176 l 81.645 34.199 l 81.688 34.219 l 81.73 34.246 l 
81.809 34.301 l 81.848 34.336 l 81.918 34.406 l 81.949 34.445 l 82.012 34.531
 l 82.039 34.578 l 82.09 34.68 l 82.109 34.73 l 82.129 34.785 l 82.148 34.844
 l 82.16 34.906 l 82.176 34.969 l 82.188 35.035 l 82.195 35.102 l 82.203
 35.242 l 82.207 35.32 l 82.207 36.258 81.656 36.535 81.223 36.535 c 80.918
 36.535 80.25 36.453 79.934 36.008 c 80.289 35.992 80.371 35.742 80.371 
35.582 c 80.371 35.344 80.191 35.168 79.957 35.168 c 79.746 35.168 79.531
 35.297 79.531 35.609 c 79.531 36.32 80.316 36.781 81.234 36.781 c 82.285
 36.781 83.012 36.074 83.012 35.32 c 83.012 34.727 82.531 34.137 81.695 
33.965 c 82.488 33.676 82.777 33.109 82.777 32.648 c 82.777 32.051 82.09
 31.602 81.25 31.602 c 80.41 31.602 79.77 32.016 79.77 32.617 c 79.77 32.875
 79.934 33.016 80.16 33.016 c 80.395 33.016 80.547 32.844 80.547 32.637 
c 80.547 32.414 80.395 32.254 80.16 32.242 c 80.426 31.906 80.945 31.824
 81.227 31.824 c 81.566 31.824 82.043 31.988 82.043 32.648 c 82.043 32.969
 81.941 33.312 81.742 33.547 c 81.492 33.836 81.281 33.852 80.902 33.871
 c 80.711 33.891 80.699 33.891 80.66 33.895 c 80.645 33.895 80.582 33.91
 80.582 33.996 c 80.582 34.102 80.652 34.102 80.777 34.102 c h
81.191 34.102 m f*
74.809 87.25 m 74.863 87.191 l 74.965 87.082 l 75.016 87.031 l 75.062 86.98
 l 75.113 86.934 l 75.156 86.883 l 75.199 86.84 l 75.246 86.797 l 75.289
 86.754 l 75.328 86.711 l 75.371 86.672 l 75.449 86.594 l 75.527 86.523 
l 75.602 86.453 l 75.742 86.328 l 75.812 86.262 l 75.953 86.141 l 76.027
 86.078 l 76.098 86.02 l 76.098 86.008 76.766 85.434 77.156 85.043 c 78.184
 84.035 78.422 83.516 78.422 83.477 c 78.422 83.367 78.324 83.367 78.305
 83.367 c 78.227 83.367 78.195 83.387 78.141 83.484 c 77.816 84.004 77.59
 84.18 77.328 84.18 c 77.066 84.18 76.941 84.016 76.777 83.832 c 76.574 
83.582 76.391 83.367 76.031 83.367 c 75.219 83.367 74.723 84.371 74.723 
84.602 c 74.723 84.656 74.754 84.719 74.852 84.719 c 74.949 84.719 74.969
 84.664 74.992 84.602 c 75.199 84.102 75.828 84.09 75.91 84.09 c 76.141 
84.09 76.344 84.168 76.594 84.254 c 77.027 84.414 77.145 84.414 77.43 84.414
 c 77.039 84.879 76.129 85.66 75.926 85.832 c 74.949 86.742 l 74.215 87.465
 73.836 88.082 73.836 88.16 c 73.836 88.27 73.945 88.27 73.965 88.27 c 74.051
 88.27 74.07 88.246 74.137 88.129 c 74.391 87.75 74.711 87.457 75.059 87.457
 c 75.309 87.457 75.414 87.555 75.684 87.867 c 75.871 88.094 76.066 88.27
 76.375 88.27 c 77.449 88.27 78.074 86.895 78.074 86.602 c 78.074 86.547
 78.031 86.492 77.949 86.492 c 77.848 86.492 77.828 86.555 77.793 86.633
 c 77.547 87.34 76.855 87.539 76.496 87.539 c 76.281 87.539 76.086 87.477
 75.855 87.402 c 75.492 87.262 75.328 87.219 75.102 87.219 c 75.078 87.219
 74.906 87.219 74.809 87.25 c h
74.809 87.25 m f*
82.402 88.523 m 82.402 88.25 l 81.562 88.25 l 81.562 84.875 l 81.562 84.719
 81.562 84.664 81.395 84.664 c 81.301 84.664 81.273 84.664 81.199 84.77 
c 78.695 88.25 l 78.695 88.523 l 80.922 88.523 l 80.969 88.25 l 78.973 88.25
 l 80.969 85.48 l 80.969 88.25 l 80.922 88.523 l 80.922 89.145 l 80.922 
89.402 80.922 89.492 80.305 89.492 c 80.102 89.492 l 80.102 89.766 l 80.48
 89.75 80.965 89.734 81.234 89.734 c 81.516 89.734 82 89.75 82.379 89.766
 c 82.379 89.492 l 82.176 89.492 l 81.562 89.492 81.562 89.402 81.562 89.145
 c 81.562 88.523 l h
82.402 88.523 m f*
6.75 0.281 m 6.75 0.18 l 6.746 0.168 l 6.746 0.137 l 6.742 0.129 l 6.742
 0.102 l 6.738 0.09 l 6.734 0.082 l 6.73 0.07 l 6.727 0.062 l 6.723 0.051
 l 6.703 0.031 l 6.688 0.023 l 6.68 0.016 l 6.672 0.016 l 6.668 0.012 l 
6.656 0.012 l 6.652 0.008 l 6.633 0.008 l 6.621 0.004 l 6.555 0.004 l 6.543
 0 l 6.5 0 l 5.828 0.691 4.879 0.691 4.535 0.691 c 4.535 1.027 l 4.75 1.027
 5.387 1.027 5.945 0.746 c 5.945 6.352 l 5.945 6.742 5.918 6.871 4.945 6.871
 c 4.598 6.871 l 4.598 7.207 l 4.977 7.172 5.918 7.172 6.348 7.172 c 6.785
 7.172 7.723 7.172 8.102 7.207 c 8.102 6.871 l 7.758 6.871 l 6.785 6.871
 6.75 6.754 6.75 6.352 c h
6.75 0.281 m f*
115.078 7.098 m 116.227 5.984 l 117.91 4.492 118.562 3.906 118.562 2.828
 c 118.562 1.59 117.59 0.723 116.27 0.723 c 115.043 0.723 114.242 1.723 
114.242 2.684 c 114.242 3.293 114.785 3.293 114.816 3.293 c 115.004 3.293
 115.383 3.16 115.383 2.719 c 115.383 2.438 115.188 2.152 114.809 2.152 
c 114.723 2.152 114.699 2.152 114.668 2.164 c 114.918 1.461 115.5 1.062 
116.129 1.062 c 117.113 1.062 117.578 1.941 117.578 2.828 c 117.578 3.691
 117.035 4.547 116.441 5.219 c 114.367 7.531 l 114.242 7.648 114.242 7.672
 114.242 7.93 c 118.258 7.93 l 118.562 6.051 l 118.293 6.051 l 118.238 6.375
 118.164 6.852 118.055 7.012 c 117.977 7.098 117.266 7.098 117.027 7.098
 c h
115.078 7.098 m f*
8.641 118.609 m 8.723 118.578 l 8.801 118.547 l 8.883 118.516 l 8.957 118.477
 l 9.035 118.438 l 9.109 118.398 l 9.18 118.355 l 9.25 118.305 l 9.316 118.258
 l 9.383 118.207 l 9.445 118.156 l 9.508 118.102 l 9.566 118.047 l 9.625
 117.988 l 9.676 117.93 l 9.73 117.867 l 9.777 117.801 l 9.824 117.738 l
 9.867 117.672 l 9.906 117.602 l 9.945 117.535 l 9.98 117.465 l 10.043 117.316
 l 10.066 117.246 l 10.09 117.172 l 10.109 117.094 l 10.125 117.016 l 10.137
 116.938 l 10.152 116.781 l 10.152 116.703 l 10.152 115.816 9.199 115.207
 8.16 115.207 c 7.07 115.207 6.25 115.859 6.25 116.68 c 6.25 117.039 6.484
 117.246 6.801 117.246 c 7.133 117.246 7.352 117.004 7.352 116.691 c 7.352
 116.152 6.84 116.152 6.684 116.152 c 7.016 115.621 7.73 115.48 8.121 115.48
 c 8.562 115.48 9.16 115.719 9.16 116.691 c 9.16 116.824 9.133 117.449 8.855
 117.926 c 8.531 118.445 8.16 118.477 7.895 118.488 c 7.805 118.5 7.547 
118.52 7.469 118.52 c 7.383 118.531 7.305 118.539 7.305 118.648 c 7.305 
118.766 7.383 118.766 7.57 118.766 c 8.043 118.766 l 8.934 118.766 9.332
 119.504 9.332 120.566 c 9.332 122.035 8.586 122.348 8.105 122.348 c 7.645
 122.348 6.832 122.168 6.453 121.527 c 6.832 121.582 7.168 121.344 7.168
 120.93 c 7.168 120.543 6.875 120.328 6.559 120.328 c 6.305 120.328 5.957
 120.477 5.957 120.957 c 5.957 121.938 6.961 122.652 8.141 122.652 c 9.461
 122.652 10.445 121.668 10.445 120.566 c 10.445 119.676 9.762 118.836 8.641
 118.609 c h
8.641 118.609 m f*
114.711 121.113 m 114.711 122.055 l 114.711 122.445 114.691 122.562 113.891
 122.562 c 113.66 122.562 l 113.66 122.898 l 114.105 122.863 114.668 122.863
 115.125 122.863 c 115.578 122.863 116.152 122.863 116.594 122.898 c 116.594
 122.562 l 116.367 122.562 l 115.566 122.562 115.543 122.445 115.543 122.055
 c 115.543 121.113 l 116.629 121.113 l 116.629 120.777 l 115.543 120.777
 l 115.543 115.855 l 115.543 115.637 115.543 115.574 115.371 115.574 c 115.273
 115.574 115.242 115.574 115.156 115.707 c 111.832 120.777 l 112.141 120.777
 l 114.777 116.742 l 114.777 120.777 l 111.832 120.777 l 111.832 121.113
 l h
114.711 121.113 m f*
64.461 52.129 m 64.457 52.008 l 64.453 51.891 l 64.438 51.773 l 64.422 
51.66 l 64.398 51.543 l 64.371 51.434 l 64.34 51.324 l 64.305 51.215 l 64.266
 51.113 l 64.172 50.91 l 64.121 50.816 l 64.062 50.723 l 64.004 50.633 l
 63.941 50.547 l 63.871 50.465 l 63.801 50.387 l 63.727 50.309 l 63.648 
50.238 l 63.57 50.172 l 63.484 50.109 l 63.398 50.055 l 63.309 50 l 63.219
 49.949 l 63.125 49.906 l 63.031 49.871 l 62.93 49.836 l 62.832 49.809 l
 62.727 49.789 l 62.621 49.773 l 62.516 49.766 l 62.406 49.762 l 61.887 
49.762 61.422 49.934 61.031 50.312 c 61.031 48.203 l 61.25 48.27 61.605 
48.344 61.949 48.344 c 63.281 48.344 64.039 47.359 64.039 47.219 c 64.039
 47.152 64.008 47.098 63.93 47.098 c 63.918 47.098 63.898 47.098 63.844 
47.133 c 63.629 47.23 63.098 47.445 62.371 47.445 c 61.941 47.445 61.441
 47.367 60.934 47.145 c 60.848 47.113 60.824 47.113 60.805 47.113 c 60.695
 47.113 60.695 47.199 60.695 47.367 c 60.695 50.57 l 60.695 50.766 60.695
 50.855 60.848 50.855 c 60.922 50.855 60.941 50.82 60.988 50.758 c 61.105
 50.582 61.508 50 62.383 50 c 62.945 50 63.215 50.496 63.301 50.691 c 63.477
 51.09 63.5 51.512 63.5 52.055 c 63.5 52.434 63.5 53.086 63.234 53.539 c
 62.98 53.961 62.578 54.238 62.082 54.238 c 61.289 54.238 60.676 53.668 
60.488 53.031 c 60.523 53.039 60.559 53.051 60.676 53.051 c 61.031 53.051
 61.215 52.777 61.215 52.52 c 61.215 52.258 61.031 51.988 60.676 51.988 
c 60.523 51.988 60.141 52.066 60.141 52.566 c 60.141 53.496 60.891 54.543
 62.105 54.543 c 63.355 54.543 64.461 53.504 64.461 52.129 c h
64.461 52.129 m f*
Q Q
showpage
%%Trailer
end
%%EOF
